{
  "leaf": false,
  "children": [
    { "text": "Home", "iconCls": "x-fa fa-home", "xtype": "homeview", "leaf": true },
    { "text": "Personnel", "iconCls": "x-fa fa-table", "xtype": "personnelview","leaf": true },
    { "text": "Show Reports", "iconCls": "x-fa fa-table", "xtype": "reportingview","leaf": true }

  ]
}